Data Exploration Cleaning
…
## Warning: 964 parsing failures.
##  row col  expected    actual                                    file
## 3279  -- 6 columns 5 columns 'Lab3_Rawdata/trends_up_to_inter_6.csv'
## 3280  -- 6 columns 2 columns 'Lab3_Rawdata/trends_up_to_inter_6.csv'
## 3281  -- 6 columns 5 columns 'Lab3_Rawdata/trends_up_to_inter_6.csv'
## 3282  -- 6 columns 2 columns 'Lab3_Rawdata/trends_up_to_inter_6.csv'
## 3283  -- 6 columns 5 columns 'Lab3_Rawdata/trends_up_to_inter_6.csv'
## .... ... ......... ......... .......................................
## See problems(...) for more details.

trends

## # A tibble: 1,593,740 x 6
##    schid schname                       keyword  keynum monthorweek         index
##    <dbl> <chr>                         <chr>     <dbl> <chr>               <dbl>
##  1     1 the university of texas medi utmb.edu      2 2013-03-31 - 2013-    57
##  2     1 the university of texas medi utmb.edu      2 2013-04-07 - 2013-    42
##  3     1 the university of texas medi utmb.edu      2 2013-04-14 - 2013-    74
##  4     1 the university of texas medi utmb.edu      2 2013-04-21 - 2013-    84
##  5     1 the university of texas medi utmb.edu      2 2013-04-28 - 2013-    99
##  6     1 the university of texas medi utmb.edu      2 2013-05-05 - 2013-    54
##  7     1 the university of texas medi utmb.edu      2 2013-05-12 - 2013-    52
##  8     1 the university of texas medi utmb.edu      2 2013-05-19 - 2013-    62
##  9     1 the university of texas medi utmb.edu      2 2013-05-26 - 2013-    80
## 10     1 the university of texas medi utmb.edu      2 2013-06-02 - 2013-    39
## #  with 1,593,730 more rows
…
